{
    "/monitoring-app-api": {
        "target": "http://oneappqa1.southcentralus.cloudapp.azure.com:3000",
        "secure": false,
        "pathRewrite": {
            "^/monitoring-app-api": ""
        },
        "changeOrigin": true
    }
}